\relax 
\providecommand\hyper@newdestlabel[2]{}
\providecommand\HyperFirstAtBeginDocument{\AtBeginDocument}
\HyperFirstAtBeginDocument{\ifx\hyper@anchor\@undefined
\global\let\oldcontentsline\contentsline
\gdef\contentsline#1#2#3#4{\oldcontentsline{#1}{#2}{#3}}
\global\let\oldnewlabel\newlabel
\gdef\newlabel#1#2{\newlabelxx{#1}#2}
\gdef\newlabelxx#1#2#3#4#5#6{\oldnewlabel{#1}{{#2}{#3}}}
\AtEndDocument{\ifx\hyper@anchor\@undefined
\let\contentsline\oldcontentsline
\let\newlabel\oldnewlabel
\fi}
\fi}
\global\let\hyper@last\relax 
\gdef\HyperFirstAtBeginDocument#1{#1}
\providecommand\HyField@AuxAddToFields[1]{}
\providecommand\HyField@AuxAddToCoFields[2]{}
\citation{bachrach2012chisel}
\@writefile{toc}{\contentsline {section}{\numberline {1}Introduction}{1}{section.1}}
\@writefile{toc}{\contentsline {section}{\numberline {2}The Sized Vector Problem}{1}{section.2}}
\citation{shapeless}
\newlabel{sec:overview}{{3}{2}{Constant Expression Types Overview}{section.3}{}}
\@writefile{toc}{\contentsline {section}{\numberline {3}Constant Expression Types Overview}{2}{section.3}}
\newlabel{sec:declaration}{{3.1}{2}{Declaration}{subsection.3.1}{}}
\@writefile{toc}{\contentsline {subsection}{\numberline {3.1}Declaration}{2}{subsection.3.1}}
\@writefile{toc}{\contentsline {subsection}{\numberline {3.2}Introduced Type}{2}{subsection.3.2}}
\@writefile{lot}{\contentsline {table}{\numberline {1}{\ignorespaces Synthesise conversion}}{3}{table.1}}
\newlabel{tab:synthesise}{{1}{3}{Synthesise conversion}{table.1}{}}
\@writefile{toc}{\contentsline {subsection}{\numberline {3.3}Constant Expression Type Reduction}{3}{subsection.3.3}}
\@writefile{toc}{\contentsline {subsection}{\numberline {3.4}Composition}{3}{subsection.3.4}}
\@writefile{toc}{\contentsline {section}{\numberline {4}Implicit Synthesis}{3}{section.4}}
\citation{wiki:space}
\citation{squants}
\@writefile{toc}{\contentsline {section}{\numberline {5}Case Studies}{4}{section.5}}
\newlabel{matrix}{{5.1}{4}{Matrix}{subsection.5.1}{}}
\@writefile{toc}{\contentsline {subsection}{\numberline {5.1}Matrix}{4}{subsection.5.1}}
\@writefile{toc}{\contentsline {subsection}{\numberline {5.2}International System Unit}{4}{subsection.5.2}}
\citation{matchtypes}
\@writefile{toc}{\contentsline {subsection}{\numberline {5.3}Sized Tensor Implementation}{7}{subsection.5.3}}
\@writefile{toc}{\contentsline {subsubsection}{\numberline {5.3.1}Match Types}{7}{subsubsection.5.3.1}}
\citation{matchtypes}
\citation{issuematch}
\citation{ronneberger2015u}
\citation{ronneberger2015u}
\@writefile{toc}{\contentsline {subsection}{\numberline {5.4}Sized Convolutional Neural Network}{8}{subsection.5.4}}
\citation{singleton}
\citation{ponyta}
\citation{stucki2018practical}
\bibstyle{IEEEtran}
\bibdata{link}
\bibcite{bachrach2012chisel}{1}
\@writefile{toc}{\contentsline {section}{\numberline {6}Related Work}{9}{section.6}}
\@writefile{toc}{\contentsline {section}{\numberline {7}Future Work}{9}{section.7}}
\@writefile{toc}{\contentsline {section}{\numberline {8}Conclusion}{9}{section.8}}
\bibcite{shapeless}{2}
\bibcite{wiki:space}{3}
\bibcite{squants}{4}
\bibcite{matchtypes}{5}
\bibcite{issuematch}{6}
\bibcite{ronneberger2015u}{7}
\bibcite{singleton}{8}
\bibcite{ponyta}{9}
\bibcite{stucki2018practical}{10}
\@writefile{toc}{\contentsline {section}{References}{10}{section*.1}}
